EDA – Sailor Shift: Rise and Resonance
…
Number of Songs and Album by Genre

Code

# Count the number of Songs and Albums in each genre
genre_summary <- nodes_tbl %>%
  filter(`Node Type` %in% c("Song", "Album")) %>%
  count(genre, `Node Type`) %>%
  pivot_wider(names_from = `Node Type`, values_from = n, values_fill = 0) %>%
  arrange(desc(Song + Album))

print(genre_summary)

# A tibble: 26 × 3
   genre                Album  Song
   <chr>                <int> <int>
 1 Dream Pop              152   590
 2 Indie Folk             108   342
 3 Synthwave               74   308
 4 Doom Metal              80   268
 5 Oceanus Folk            70   235
 6 Alternative Rock        53   205
 7 Southern Gothic Rock    57   185
 8 Indie Rock              52   156
 9 Americana               39   145
10 Psychedelic Rock        32   140
# ℹ 16 more rows
…
